<?xml version="1.0" encoding="UTF-8" standalone="no"?>
<svg
   xmlns:dc="http://purl.org/dc/elements/1.1/"
   xmlns:cc="http://creativecommons.org/ns#"
   xmlns:rdf="http://www.w3.org/1999/02/22-rdf-syntax-ns#"
   xmlns:svg="http://www.w3.org/2000/svg"
   xmlns="http://www.w3.org/2000/svg"
   xmlns:sodipodi="http://sodipodi.sourceforge.net/DTD/sodipodi-0.dtd"
   xmlns:inkscape="http://www.inkscape.org/namespaces/inkscape"
   id="svg8"
   version="1.1"
   viewBox="0 0 64 63.75"
   height="64"
   width="64"
   sodipodi:docname="glyph-code.svg"
   inkscape:version="0.92.1 r15371">
  <sodipodi:namedview
     pagecolor="#000000"
     bordercolor="#666666"
     borderopacity="1"
     objecttolerance="10"
     gridtolerance="10"
     guidetolerance="10"
     inkscape:pageopacity="0"
     inkscape:pageshadow="2"
     inkscape:window-width="1290"
     inkscape:window-height="756"
     id="namedview4533"
     showgrid="true"
     inkscape:zoom="8.96875"
     inkscape:cx="32"
     inkscape:cy="32"
     inkscape:window-x="76"
     inkscape:window-y="0"
     inkscape:window-maximized="1"
     inkscape:current-layer="svg8">
    <inkscape:grid
       type="xygrid"
       id="grid5822"
       empspacing="4" />
  </sodipodi:namedview>
  <defs
     id="defs2" />
  <metadata
     id="metadata5">
    <rdf:RDF>
      <cc:Work
         rdf:about="">
        <dc:format>image/svg+xml</dc:format>
        <dc:type
           rdf:resource="http://purl.org/dc/dcmitype/StillImage" />
        <dc:title></dc:title>
      </cc:Work>
    </rdf:RDF>
  </metadata>
  <g
     transform="translate(2,-64)"
     style="display:inline"
     id="layer3">
    <path
       id="path5685"
       d="M 26,69.875 C 14.92986,69.875 5.9375,78.89888 5.9375,90 c 0,11.10112 8.99236,20.125 20.0625,20.125 4.181817,0 8.065168,-1.29124 11.28125,-3.49219 l 16.949219,16.94922 c 0.39053,0.39037 1.023532,0.39037 1.414062,0 l 4,-4 c 0.390367,-0.39053 0.390367,-1.02353 0,-1.41406 L 42.666016,101.18945 C 44.808181,97.987821 46.0625,94.139455 46.0625,90 46.0625,78.89888 37.07014,69.875 26,69.875 Z m 0,2 c 9.985716,0 18.0625,8.101228 18.0625,18.125 0,10.02377 -8.076784,18.125 -18.0625,18.125 C 16.014284,108.125 7.9375,100.02377 7.9375,90 7.9375,79.976228 16.014284,71.875 26,71.875 Z m 15.460938,30.9375 16.0625,16.0625 -2.585938,2.58594 -16.052734,-16.05274 c 0.933504,-0.78666 1.798838,-1.65337 2.576172,-2.5957 z"
       style="color:#000000;font-style:normal;font-variant:normal;font-weight:normal;font-stretch:normal;font-size:medium;line-height:normal;font-family:sans-serif;font-variant-ligatures:normal;font-variant-position:normal;font-variant-caps:normal;font-variant-numeric:normal;font-variant-alternates:normal;font-feature-settings:normal;text-indent:0;text-align:start;text-decoration:none;text-decoration-line:none;text-decoration-style:solid;text-decoration-color:#000000;letter-spacing:normal;word-spacing:normal;text-transform:none;writing-mode:lr-tb;direction:ltr;text-orientation:mixed;dominant-baseline:auto;baseline-shift:baseline;text-anchor:start;white-space:normal;shape-padding:0;clip-rule:nonzero;display:inline;overflow:visible;visibility:visible;opacity:1;isolation:auto;mix-blend-mode:normal;color-interpolation:sRGB;color-interpolation-filters:linearRGB;solid-color:#000000;solid-opacity:1;vector-effect:none;fill:#ffffff;fill-opacity:1;fill-rule:nonzero;stroke:none;stroke-width:2;stroke-linecap:round;stroke-linejoin:round;stroke-miterlimit:4;stroke-dasharray:none;stroke-dashoffset:0;stroke-opacity:1;paint-order:normal;color-rendering:auto;image-rendering:auto;shape-rendering:auto;text-rendering:auto;enable-background:accumulate"
       inkscape:connector-curvature="0"
       sodipodi:nodetypes="sssccccccsssssssccccc" />
  </g>
  <path
     style="color:#000000;font-style:normal;font-variant:normal;font-weight:normal;font-stretch:normal;font-size:medium;line-height:normal;font-family:sans-serif;font-variant-ligatures:normal;font-variant-position:normal;font-variant-caps:normal;font-variant-numeric:normal;font-variant-alternates:normal;font-feature-settings:normal;text-indent:0;text-align:start;text-decoration:none;text-decoration-line:none;text-decoration-style:solid;text-decoration-color:#000000;letter-spacing:normal;word-spacing:normal;text-transform:none;writing-mode:lr-tb;direction:ltr;text-orientation:mixed;dominant-baseline:auto;baseline-shift:baseline;text-anchor:start;white-space:normal;shape-padding:0;clip-rule:nonzero;display:inline;overflow:visible;visibility:visible;opacity:1;isolation:auto;mix-blend-mode:normal;color-interpolation:sRGB;color-interpolation-filters:linearRGB;solid-color:#000000;solid-opacity:1;vector-effect:none;fill:#ffffff;fill-opacity:1;fill-rule:nonzero;stroke:none;stroke-width:2;stroke-linecap:round;stroke-linejoin:round;stroke-miterlimit:2;stroke-dasharray:none;stroke-dashoffset:0;stroke-opacity:1;paint-order:normal;color-rendering:auto;image-rendering:auto;shape-rendering:auto;text-rendering:auto;enable-background:accumulate"
     d="m 28,9.875 a 16,16 0 0 0 -4.699219,0.722656 C 23.113898,10.987505 23,11.417383 23,11.875 v 4 c 0,1.644703 1.355297,3 3,3 h 1 c 1.644703,0 3,-1.355297 3,-3 v -4 C 30,11.135667 29.716538,10.46305 29.265625,9.9375 A 16,16 0 0 0 28,9.875 Z m 4,0.529297 V 17.875 a 1.0001,1.0001 0 1 0 2,0 V 11.054688 A 16,16 0 0 0 32,10.404297 Z M 26,10.875 h 1 c 0.571297,0 1,0.428703 1,1 v 4 c 0,0.571297 -0.428703,1 -1,1 h -1 c -0.571297,0 -1,-0.428703 -1,-1 v -4 c 0,-0.571297 0.428703,-1 1,-1 z M 21,11.5 a 16,16 0 0 0 -2,1.166016 V 17.875 a 1.0001,1.0001 0 1 0 2,0 z m 15,0.535156 V 17.875 a 1.0001,1.0001 0 1 0 2,0 V 13.404297 A 16,16 0 0 0 36,12.035156 Z M 17,14.267578 A 16,16 0 0 0 13.634766,18.875 H 14 c 1.644703,0 3,-1.355297 3,-3 z m 23,1.054688 V 15.875 c 0,1.417524 1.008753,2.614758 2.339844,2.919922 A 16,16 0 0 0 40,15.322266 Z M 12.984375,21.861328 A 1.0001,1.0001 0 0 0 12.496094,21.998047 16,16 0 0 0 12,25.875 16,16 0 0 0 13.177734,31.871094 1.0001,1.0001 0 0 0 14,30.875 v -8 a 1.0001,1.0001 0 0 0 -1.015625,-1.013672 z m 13,0 A 1.0001,1.0001 0 0 0 25,22.875 v 8 a 1.0001,1.0001 0 1 0 2,0 v -8 a 1.0001,1.0001 0 0 0 -1.015625,-1.013672 z m 13,0 A 1.0001,1.0001 0 0 0 38,22.875 v 8 a 1.0001,1.0001 0 1 0 2,0 v -8 A 1.0001,1.0001 0 0 0 38.984375,21.861328 Z M 19,21.875 c -1.644703,0 -3,1.355297 -3,3 v 4 c 0,1.644703 1.355297,3 3,3 h 1 c 1.644703,0 3,-1.355297 3,-3 v -4 c 0,-1.644703 -1.355297,-3 -3,-3 z m 13,0 c -1.644703,0 -3,1.355297 -3,3 v 4 c 0,1.644703 1.355297,3 3,3 h 1 c 1.644703,0 3,-1.355297 3,-3 v -4 c 0,-1.644703 -1.355297,-3 -3,-3 z m 11.566406,0.386719 C 42.640768,22.77521 42,23.751086 42,24.875 v 4 c 0,0.914278 0.427511,1.728933 1.082031,2.28125 A 16,16 0 0 0 44,25.875 16,16 0 0 0 43.566406,22.261719 Z M 19,23.875 h 1 c 0.571297,0 1,0.428703 1,1 v 4 c 0,0.571297 -0.428703,1 -1,1 h -1 c -0.571297,0 -1,-0.428703 -1,-1 v -4 c 0,-0.571297 0.428703,-1 1,-1 z m 13,0 h 1 c 0.571297,0 1,0.428703 1,1 v 4 c 0,0.571297 -0.428703,1 -1,1 h -1 c -0.571297,0 -1,-0.428703 -1,-1 v -4 c 0,-0.571297 0.428703,-1 1,-1 z M 15.984375,34.861328 A 1.0001,1.0001 0 0 0 15.136719,35.359375 16,16 0 0 0 17,37.466797 V 35.875 a 1.0001,1.0001 0 0 0 -1.015625,-1.013672 z m 22,0 A 1.0001,1.0001 0 0 0 37,35.875 v 3.208984 a 16,16 0 0 0 2,-1.601562 V 35.875 A 1.0001,1.0001 0 0 0 37.984375,34.861328 Z M 22,34.875 c -1.644703,0 -3,1.355297 -3,3 v 1.226562 a 16,16 0 0 0 2,1.138672 V 37.875 c 0,-0.571297 0.428703,-1 1,-1 h 1 c 0.571297,0 1,0.428703 1,1 v 3.470703 a 16,16 0 0 0 2,0.388672 V 37.875 c 0,-1.644703 -1.355297,-3 -3,-3 z m 9,0 c -1.644703,0 -3,1.355297 -3,3 v 4 a 16,16 0 0 0 2,-0.146484 V 37.875 c 0,-0.571297 0.428703,-1 1,-1 h 1 c 0.571297,0 1,0.428703 1,1 v 3.175781 A 16,16 0 0 0 35,40.25 v -2.375 c 0,-1.644703 -1.355297,-3 -3,-3 z"
     id="path5824"
     inkscape:connector-curvature="0" />
  <path
     style="opacity:1;fill:none;fill-opacity:1;stroke:#ffffff;stroke-width:2;stroke-linecap:round;stroke-linejoin:round;stroke-miterlimit:4;stroke-dasharray:none;stroke-opacity:1;paint-order:normal"
     d="M 2,51.875 H 24"
     id="path5978"
     inkscape:connector-curvature="0"
     sodipodi:nodetypes="cc" />
  <path
     style="opacity:1;fill:none;fill-opacity:1;stroke:#ffffff;stroke-width:2;stroke-linecap:round;stroke-linejoin:round;stroke-miterlimit:4;stroke-dasharray:none;stroke-opacity:1;paint-order:normal"
     d="m 28,51.875 h 8"
     id="path5980"
     inkscape:connector-curvature="0"
     sodipodi:nodetypes="cc" />
  <path
     style="opacity:1;fill:none;fill-opacity:1;stroke:#ffffff;stroke-width:2;stroke-linecap:round;stroke-linejoin:round;stroke-miterlimit:4;stroke-dasharray:none;stroke-opacity:1;paint-order:normal"
     d="M 42,57.875 H 21"
     id="path5982"
     inkscape:connector-curvature="0"
     sodipodi:nodetypes="cc" />
  <path
     style="opacity:1;fill:none;fill-opacity:1;stroke:#ffffff;stroke-width:2;stroke-linecap:round;stroke-linejoin:round;stroke-miterlimit:4;stroke-dasharray:none;stroke-opacity:1;paint-order:normal"
     d="M 17,57.875 H 2"
     id="path5984"
     inkscape:connector-curvature="0"
     sodipodi:nodetypes="cc" />
  <path
     style="opacity:1;fill:none;fill-opacity:1;stroke:#ffffff;stroke-width:2;stroke-linecap:round;stroke-linejoin:round;stroke-miterlimit:4;stroke-dasharray:none;stroke-opacity:1;paint-order:normal"
     d="M 2,45.875 H 9"
     id="path5988"
     inkscape:connector-curvature="0"
     sodipodi:nodetypes="cc" />
</svg>
